-- Merging decision tree log ---
manifest
ADDED from C:\Users\CHiter\AndroidStudioProjects\Puzzle\AndroidManifest.xml:2:1-40:12
	xmlns:android
		ADDED from C:\Users\CHiter\AndroidStudioProjects\Puzzle\AndroidManifest.xml:2:11-69
	package
		ADDED from C:\Users\CHiter\AndroidStudioProjects\Puzzle\AndroidManifest.xml:3:5-33
	android:versionName
		ADDED from C:\Users\CHiter\AndroidStudioProjects\Puzzle\AndroidManifest.xml:5:5-30
	android:versionCode
		ADDED from C:\Users\CHiter\AndroidStudioProjects\Puzzle\AndroidManifest.xml:4:5-28
		INJECTED from C:\Users\CHiter\AndroidStudioProjects\Puzzle\AndroidManifest.xml
		INJECTED from C:\Users\CHiter\AndroidStudioProjects\Puzzle\AndroidManifest.xml
uses-sdk
ADDED from C:\Users\CHiter\AndroidStudioProjects\Puzzle\AndroidManifest.xml:7:5-9:41
	android:targetSdkVersion
		ADDED from C:\Users\CHiter\AndroidStudioProjects\Puzzle\AndroidManifest.xml:9:9-38
	android:minSdkVersion
		ADDED from C:\Users\CHiter\AndroidStudioProjects\Puzzle\AndroidManifest.xml:8:9-35
application
ADDED from C:\Users\CHiter\AndroidStudioProjects\Puzzle\AndroidManifest.xml:11:5-38:19
	android:screenOrientation
		ADDED from C:\Users\CHiter\AndroidStudioProjects\Puzzle\AndroidManifest.xml:17:9-45
	android:label
		ADDED from C:\Users\CHiter\AndroidStudioProjects\Puzzle\AndroidManifest.xml:15:9-41
	android:allowBackup
		ADDED from C:\Users\CHiter\AndroidStudioProjects\Puzzle\AndroidManifest.xml:13:9-35
	android:icon
		ADDED from C:\Users\CHiter\AndroidStudioProjects\Puzzle\AndroidManifest.xml:14:9-45
	android:theme
		ADDED from C:\Users\CHiter\AndroidStudioProjects\Puzzle\AndroidManifest.xml:16:9-40
	android:name
		ADDED from C:\Users\CHiter\AndroidStudioProjects\Puzzle\AndroidManifest.xml:12:9-47
activity#com.example.puzzle.MainActivity
ADDED from C:\Users\CHiter\AndroidStudioProjects\Puzzle\AndroidManifest.xml:18:9-25:20
	android:label
		ADDED from C:\Users\CHiter\AndroidStudioProjects\Puzzle\AndroidManifest.xml:20:13-45
	android:name
		ADDED from C:\Users\CHiter\AndroidStudioProjects\Puzzle\AndroidManifest.xml:19:13-41
intent-filter#android.intent.action.MAIN+android.intent.category.LAUNCHER
ADDED from C:\Users\CHiter\AndroidStudioProjects\Puzzle\AndroidManifest.xml:21:13-24:29
action#android.intent.action.MAIN
ADDED from C:\Users\CHiter\AndroidStudioProjects\Puzzle\AndroidManifest.xml:22:17-69
	android:name
		ADDED from C:\Users\CHiter\AndroidStudioProjects\Puzzle\AndroidManifest.xml:22:25-66
category#android.intent.category.LAUNCHER
ADDED from C:\Users\CHiter\AndroidStudioProjects\Puzzle\AndroidManifest.xml:23:17-77
	android:name
		ADDED from C:\Users\CHiter\AndroidStudioProjects\Puzzle\AndroidManifest.xml:23:27-74
activity#com.example.puzzle.Choice
ADDED from C:\Users\CHiter\AndroidStudioProjects\Puzzle\AndroidManifest.xml:26:9-31:20
	android:name
		ADDED from C:\Users\CHiter\AndroidStudioProjects\Puzzle\AndroidManifest.xml:26:19-40
intent-filter#android.intent.category.DEFAULT+ru.choice
ADDED from C:\Users\CHiter\AndroidStudioProjects\Puzzle\AndroidManifest.xml:27:13-30:29
action#ru.choice
ADDED from C:\Users\CHiter\AndroidStudioProjects\Puzzle\AndroidManifest.xml:28:17-51
	android:name
		ADDED from C:\Users\CHiter\AndroidStudioProjects\Puzzle\AndroidManifest.xml:28:25-49
category#android.intent.category.DEFAULT
ADDED from C:\Users\CHiter\AndroidStudioProjects\Puzzle\AndroidManifest.xml:29:17-75
	android:name
		ADDED from C:\Users\CHiter\AndroidStudioProjects\Puzzle\AndroidManifest.xml:29:27-73
activity#com.example.puzzle.Puzzle
ADDED from C:\Users\CHiter\AndroidStudioProjects\Puzzle\AndroidManifest.xml:32:9-37:20
	android:name
		ADDED from C:\Users\CHiter\AndroidStudioProjects\Puzzle\AndroidManifest.xml:32:19-40
intent-filter#android.intent.category.DEFAULT+ru.puzzle
ADDED from C:\Users\CHiter\AndroidStudioProjects\Puzzle\AndroidManifest.xml:33:13-36:29
action#ru.puzzle
ADDED from C:\Users\CHiter\AndroidStudioProjects\Puzzle\AndroidManifest.xml:34:17-51
	android:name
		ADDED from C:\Users\CHiter\AndroidStudioProjects\Puzzle\AndroidManifest.xml:34:25-49
